…
您说：
View(problematic_rows_2)
> print(problematic_rows_2)
# A tibble: 4,869 × 13
        id property_address address_number address_name enforcement_proceedi…¹
     <dbl> <chr>                     <dbl> <chr>        <chr>                 
 1  2.71e7 715 Don Mills Rd            715 Don Mills    No                    
 2  2.71e7 715 Don Mills Rd            715 Don Mills    No                    
 3  2.71e7 715 Don Mills Rd            715 Don Mills    No                    
 4  2.71e7 701 Don Mills Rd            701 Don Mills    No                    
 5  2.71e7 10 Edgecliff Go…             10 Edgecliff G… No                    
 6  2.71e7 25 Bamburgh Crcl             25 Bamburgh     No                    
 7  2.71e7 801 Sheppard Av…            801 Sheppard     No                    
 8  2.71e7 70 Cuffley Cres…             70 Cuffley      No                    
 9  2.71e7 44 Willowridge …             44 Willowridge  No                    
10  2.71e7 2743 Victoria P…           2743 Victoria Pa… No                    
# ℹ 4,859 more rows
# ℹ abbreviated name: ¹​enforcement_proceedings
# ℹ 8 more variables: property_type <chr>, property_ward <chr>,
#   inspection_thread <chr>, inspections_opendate <dttm>,
#   inspections_closeddate <dttm>, violation_fire_code <chr>,
#   violations_item_number <dbl>, violation_description <chr>
# ℹ Use print(n = ...) to see more rows
…
